{
  "project_info": {
    "project_number": "1039136409947",
    "project_id": "rpss-2841a",
    "storage_bucket": "rpss-2841a.appspot.com"
  },
  "client": [
    {
      "client_info": {
        "mobilesdk_app_id": "1:1039136409947:android:ddbb4a829ab683a9d2727e",
        "android_client_info": {
          "package_name": "com.appicoder.RockPaperScissor"
        }
      },
      "oauth_client": [
        {
          "client_id": "1039136409947-fl8f866mkjcmcuk3o5f0n75qi5rifatu.apps.googleusercontent.com",
          "client_type": 3
        }
      ],
      "api_key": [
        {
          "current_key": "AIzaSyC3S9kb6ef285NX-6iJCaO1wiCGu1sJToY"
        }
      ],
      "services": {
        "appinvite_service": {
          "other_platform_oauth_client": [
            {
              "client_id": "1039136409947-fl8f866mkjcmcuk3o5f0n75qi5rifatu.apps.googleusercontent.com",
              "client_type": 3
            },
            {
              "client_id": "1039136409947-24vv7gmbeis421b46kvlglrucsgsm8go.apps.googleusercontent.com",
              "client_type": 2,
              "ios_info": {
                "bundle_id": "com.appicoder.RockPaperScissor"
              }
            }
          ]
        }
      }
    }
  ],
  "configuration_version": "1"
}