%YAML 1.1
%TAG !u! tag:unity3d.com,2011:
--- !u!74 &7400000
AnimationClip:
  m_ObjectHideFlags: 0
  m_CorrespondingSourceObject: {fileID: 0}
  m_PrefabInstance: {fileID: 0}
  m_PrefabAsset: {fileID: 0}
  m_Name: ScootWithGreenAnim
  serializedVersion: 6
  m_Legacy: 0
  m_Compressed: 0
  m_UseHighQualityCurve: 1
  m_RotationCurves: []
  m_CompressedRotationCurves: []
  m_EulerCurves: []
  m_PositionCurves: []
  m_ScaleCurves: []
  m_FloatCurves: []
  m_PPtrCurves:
  - curve:
    - time: 0
      value: {fileID: 21300000, guid: 275a4bbefef1b4159b5f54a43c17d5b5, type: 3}
    - time: 0.16666667
      value: {fileID: 21300000, guid: eeaafc240ef1f41169f9a45f5f6f8c4b, type: 3}
    - time: 0.33333334
      value: {fileID: 21300000, guid: 27dbb970f3b854d89b57f63c1f78af8f, type: 3}
    - time: 0.5
      value: {fileID: 21300000, guid: e03adc7a2ec004bb48b1a534de868c9f, type: 3}
    - time: 0.6666667
      value: {fileID: 21300000, guid: 2cae4eb4d245340f8a2e19aabec6d2e1, type: 3}
    - time: 0.8333333
      value: {fileID: 21300000, guid: cc39cf8e830c44543ad22546aaff3cea, type: 3}
    - time: 1
      value: {fileID: 21300000, guid: 8b8afe2e322584b95af7f41e971feb68, type: 3}
    - time: 1.1666666
      value: {fileID: 21300000, guid: 29cfa8c7bc7224ed19ce32cf8de82731, type: 3}
    - time: 1.3333334
      value: {fileID: 21300000, guid: 1c29063ba49b04ad5bae4cfaca43622d, type: 3}
    - time: 1.5
      value: {fileID: 21300000, guid: bdbe47f168ecf4a2599e3765d671a1e1, type: 3}
    - time: 1.6666666
      value: {fileID: 21300000, guid: f2360b27e47b345e280fc0fe18ad103b, type: 3}
    attribute: m_Sprite
    path: 
    classID: 114
    script: {fileID: 11500000, guid: fe87c0e1cc204ed48ad3b37840f39efc, type: 3}
  m_SampleRate: 60
  m_WrapMode: 0
  m_Bounds:
    m_Center: {x: 0, y: 0, z: 0}
    m_Extent: {x: 0, y: 0, z: 0}
  m_ClipBindingConstant:
    genericBindings:
    - serializedVersion: 2
      path: 0
      attribute: 2015549526
      script: {fileID: 11500000, guid: fe87c0e1cc204ed48ad3b37840f39efc, type: 3}
      typeID: 114
      customType: 0
      isPPtrCurve: 1
    pptrCurveMapping:
    - {fileID: 21300000, guid: 275a4bbefef1b4159b5f54a43c17d5b5, type: 3}
    - {fileID: 21300000, guid: eeaafc240ef1f41169f9a45f5f6f8c4b, type: 3}
    - {fileID: 21300000, guid: 27dbb970f3b854d89b57f63c1f78af8f, type: 3}
    - {fileID: 21300000, guid: e03adc7a2ec004bb48b1a534de868c9f, type: 3}
    - {fileID: 21300000, guid: 2cae4eb4d245340f8a2e19aabec6d2e1, type: 3}
    - {fileID: 21300000, guid: cc39cf8e830c44543ad22546aaff3cea, type: 3}
    - {fileID: 21300000, guid: 8b8afe2e322584b95af7f41e971feb68, type: 3}
    - {fileID: 21300000, guid: 29cfa8c7bc7224ed19ce32cf8de82731, type: 3}
    - {fileID: 21300000, guid: 1c29063ba49b04ad5bae4cfaca43622d, type: 3}
    - {fileID: 21300000, guid: bdbe47f168ecf4a2599e3765d671a1e1, type: 3}
    - {fileID: 21300000, guid: f2360b27e47b345e280fc0fe18ad103b, type: 3}
  m_AnimationClipSettings:
    serializedVersion: 2
    m_AdditiveReferencePoseClip: {fileID: 0}
    m_AdditiveReferencePoseTime: 0
    m_StartTime: 0
    m_StopTime: 1.6833333
    m_OrientationOffsetY: 0
    m_Level: 0
    m_CycleOffset: 0
    m_HasAdditiveReferencePose: 0
    m_LoopTime: 0
    m_LoopBlend: 0
    m_LoopBlendOrientation: 0
    m_LoopBlendPositionY: 0
    m_LoopBlendPositionXZ: 0
    m_KeepOriginalOrientation: 0
    m_KeepOriginalPositionY: 1
    m_KeepOriginalPositionXZ: 0
    m_HeightFromFeet: 0
    m_Mirror: 0
  m_EditorCurves: []
  m_EulerEditorCurves: []
  m_HasGenericRootTransform: 0
  m_HasMotionFloatCurves: 0
  m_Events: []
